%YAML 1.1
%TAG !u! tag:unity3d.com,2011:
--- !u!162 &1
EditorUserSettings:
  m_ObjectHideFlags: 0
  serializedVersion: 4
  m_ConfigSettings:
    RecentlyUsedSceneGuid-0:
      value: 51085152555350035e0c5a2345710c44134e1d737a7e7065742c4d36e0b8376d
      flags: 0
    RecentlyUsedSceneGuid-1:
      value: 010956565403080b540b5b771176064410164879752d7536747c1f67b1b96c3c
      flags: 0
    RecentlyUsedSceneGuid-2:
      value: 51530d56550158585d5c0a2340770d44414e4c2b2a7a22657d794863bab06d69
      flags: 0
    RecentlyUsedSceneGuid-3:
      value: 5101045654040f585a5f557045255c444f16197c757e74632f704e64e4b8316e
      flags: 0
    RecentlyUsedSceneGuid-4:
      value: 53570c5100040c5a5e0a5a7646750a44134f1d2e747027317d7c1b6abab96260
      flags: 0
    RecentlyUsedSceneGuid-5:
      value: 53535703500c590c0959557511775c144e15487c7a7822337c78446bb4b73160
      flags: 0
    RecentlyUsedSceneGuid-6:
      value: 5a5757560101590a5d0c0e24427b5d44434e4c7a7b7a23677f2b4565b7b5353a
      flags: 0
    RecentlyUsedSceneGuid-7:
      value: 570051025502080b5c5e5f7216760644144f1a7329297f67792b4e66e7e2313b
      flags: 0
    RecentlyUsedSceneGuid-8:
      value: 55550656530c0a5f595c5d7445220644404e1b29797c27627d7f4c65b7e2303a
      flags: 0
    RecentlyUsedSceneGuid-9:
      value: 5109565e00055c0f0b08597613720944404f1e282e79233375284f6ab4e2613a
      flags: 0
    vcSharedLogLevel:
      value: 0d5e400f0650
      flags: 0
  m_VCAutomaticAdd: 1
  m_VCDebugCom: 0
  m_VCDebugCmd: 0
  m_VCDebugOut: 0
  m_SemanticMergeMode: 2
  m_DesiredImportWorkerCount: 3
  m_StandbyImportWorkerCount: 2
  m_IdleImportWorkerShutdownDelay: 60000
  m_VCShowFailedCheckout: 1
  m_VCOverwriteFailedCheckoutAssets: 1
  m_VCProjectOverlayIcons: 1
  m_VCHierarchyOverlayIcons: 1
  m_VCOtherOverlayIcons: 1
  m_VCAllowAsyncUpdate: 1
  m_ArtifactGarbageCollection: 1
